# Blender 3.6.1
# www.blender.org
mtllib bl_tutorial_obstacle.mtl
o Plane
v -3.354230 -5.062690 -2.099657
v -3.354230 -5.062690 2.099657
v -3.354230 3.988909 -2.091300
v -3.354230 5.000000 -1.178015
v -3.354230 5.000000 1.178016
v -3.354230 3.988909 2.091301
v -3.354230 3.093795 0.634817
v -3.354230 -3.614665 0.634817
v -3.354230 3.093795 -0.634817
v -3.354230 -3.614665 -0.634817
v -0.000000 -5.062690 -2.099657
v 0.000000 -5.062690 2.099657
v -0.000000 3.988909 -2.091300
v -0.000000 5.000000 -1.178015
v 0.000000 5.000000 1.178015
v 0.000000 3.988909 2.091300
v -0.000000 -3.614665 -0.634817
v 0.000000 3.093795 0.634817
v -0.000000 3.093795 -0.634817
v 0.000000 -3.614665 0.634817
v 3.354230 -5.062690 -2.099657
v 3.354230 -5.062690 2.099657
v 3.354230 3.988909 -2.091301
v 3.354230 5.000000 -1.178016
v 3.354230 5.000000 1.178015
v 3.354230 3.988909 2.091300
v 3.354230 3.093795 0.634817
v 3.354230 -3.614665 0.634817
v 3.354230 3.093795 -0.634817
v 3.354230 -3.614665 -0.634817
vn -0.0000 1.0000 -0.0000
vn -1.0000 -0.0000 -0.0000
vn -0.0000 -1.0000 -0.0000
vn -0.0000 -0.0000 1.0000
vn -0.0000 0.6703 0.7421
vn -0.0000 0.6703 -0.7421
vn -0.0000 0.0009 -1.0000
vn -0.0000 0.0009 1.0000
vn -0.0000 -0.0000 -1.0000
vn 1.0000 -0.0000 -0.0000
vt 0.311836 0.624969
vt 0.250061 0.624969
vt 0.250061 0.500000
vt 0.311836 0.500000
vt 0.311836 0.250061
vt 0.250061 0.250061
vt 0.250061 0.125092
vt 0.311836 0.125092
vt 0.561775 0.125092
vt 0.561775 0.250061
vt 0.562020 0.395616
vt 0.562020 0.337360
vt 0.686989 0.337360
vt 0.686989 0.395616
vt 0.562020 0.510249
vt 0.686989 0.510249
vt 0.562020 0.568505
vt 0.686989 0.568505
vt 0.562020 0.905742
vt 0.686989 0.905742
vt 0.562020 0.000123
vt 0.686989 0.000123
vt 0.000123 0.250061
vt 0.000123 0.125092
s 0
usemtl Material
f 18/1/1 19/2/1 9/3/1 7/4/1
f 8/5/2 7/4/2 9/3/2 10/6/2
f 17/7/3 20/8/3 8/5/3 10/6/3
f 20/8/4 18/9/4 7/10/4 8/5/4
f 5/11/5 6/12/5 16/13/5 15/14/5
f 4/15/1 5/11/1 15/14/1 14/16/1
f 3/17/6 4/15/6 14/16/6 13/18/6
f 1/19/7 3/17/7 13/18/7 11/20/7
f 6/12/8 2/21/8 12/22/8 16/13/8
f 10/6/9 9/23/9 19/24/9 17/7/9
f 18/1/1 27/4/1 29/3/1 19/2/1
f 28/5/10 30/6/10 29/3/10 27/4/10
f 17/7/3 30/6/3 28/5/3 20/8/3
f 20/8/4 28/5/4 27/10/4 18/9/4
f 25/11/5 15/14/5 16/13/5 26/12/5
f 24/15/1 14/16/1 15/14/1 25/11/1
f 23/17/6 13/18/6 14/16/6 24/15/6
f 21/19/7 11/20/7 13/18/7 23/17/7
f 26/12/8 16/13/8 12/22/8 22/21/8
f 30/6/9 17/7/9 19/24/9 29/23/9
